Kerry A. Morgan;1998-05-22;D8U 1C6;+1 514-155-9800
Merry B-D. Morgan;1998-05-22;M8U 1D7;+1 514-515-9922
loy B. Morgan;2088-05-22;H8C 1B5;+1 514-500-9876
Derry G. Lorgan;1998-05-22;H8C 1B5;+1 414-501-9876
Berry C. Korgan;1998-05-22;T8U 1C6;+1 414-525-9811
Qerry-B-D. Rorgan;1928-05-22;J8U 1D7;+1 914-655-9933
